Term Project/Exp Data/PositionSensor.csv

#Digilent WaveForms Oscilloscope Acquisition
#Device Name: Discovery2
#Serial Number: SN:210321A1A159
#Date Time: 2021-04-06 15:43:00.687
#Sample rate: 4000Hz
#Samples: 8000
#Trigger: Source: Channel 2 Type: Edge Condition: Rising Level: 200 mV Hyst.: Auto HoldOff: 0 s
#Channel 2: Range: 500 mV/div Offset: -1 V
#Math 1: Function: -1*C1

Time (s),Channel 2 (V),Math 1 (V)
-0.19999999999999996,1.0314522667860588,-14.076595337885358
-0.19974999999999998,1.0348108393573656,-14.063144963801363
-0.19950000000000001,1.0348108393573656,-14.056419776759366
-0.19924999999999993,1.0415279844999792,-14.053057183238368
-0.19899999999999995,1.0415279844999792,-14.039606809154373
-0.19874999999999998,1.0415279844999792,-14.012706060986384
-0.19850000000000001,1.0381694119286724,-13.942091597045414
-0.19824999999999993,1.0348108393573656,-13.891652694230434
-0.19799999999999995,1.0381694119286724,-13.878202320146439
-0.19774999999999998,1.0348108393573656,-13.864751946062444
-0.19750000000000001,1.0348108393573656,-13.854664165499448
-0.19724999999999993,1.0381694119286724,-13.844576384936452
-0.19699999999999995,1.0348108393573656,-13.827763417331459
-0.19674999999999998,1.0348108393573656,-13.814313043247465
-0.19650000000000001,1.0381694119286724,-13.797500075642471
-0.19624999999999992,1.0348108393573656,-13.787412295079475
-0.19599999999999995,1.0381694119286724,3.3315513203246181
-0.19574999999999998,1.0381694119286724,3.3416391008876141
-0.19550000000000001,1.0381694119286724,3.3550894749716087
-0.19524999999999992,1.0381694119286724,3.361814662013606
-0.19499999999999995,1.0381694119286724,3.3651772555346047
-0.19474999999999998,1.0348108393573656,3.3752650360976006
-0.19450000000000001,1.0348108393573656,3.3853528166605966
-0.19424999999999992,1.0348108393573656,3.3920780037025939
-0.19399999999999995,1.0415279844999792,3.4021657842655895
-0.19374999999999998,1.0381694119286724,3.4088909713075868
-0.19350000000000001,1.0314522667860588,3.4391543129965747
-0.19324999999999992,1.0314522667860588,3.4492420935595707
-0.19299999999999995,1.0280936942147521,3.455967280601568
-0.19274999999999998,1.0280936942147521,3.4526046870805693
-0.1925,1.0280936942147521,3.4425169065175734
-0.19224999999999992,1.0280936942147521,3.435791719475576
-0.19199999999999995,1.0280936942147521,3.4257039389125801
-0.19174999999999998,1.0280936942147521,3.4290665324335787
-0.1915,1.0280936942147521,3.4492420935595707
-0.19124999999999992,1.0280936942147521,3.4593298741225667
-0.19099999999999995,1.0247351216434453,3.4727802482065613
-0.19074999999999998,1.0247351216434453,3.4795054352485586
-0.1905,1.0213765490721385,3.4963184028535519
-0.19024999999999992,1.0180179765008317,3.540032118626534
-0.18999999999999995,1.0113008313582181,3.6072839890465067
-0.18974999999999997,1.0113008313582181,3.6274595501724987
-0.1895,1.0113008313582181,3.6442725177774919
-0.18924999999999992,1.0113008313582181,3.6610854853824852
-0.18899999999999995,1.0113008313582181,3.6678106724244826
-0.18874999999999997,1.0113008313582181,3.6812610465084772
-0.1885,1.0113008313582181,3.6947114205924718
-0.18824999999999992,1.0113008313582181,3.7047992011554673
-0.18799999999999994,1.0113008313582181,3.718249575239462
-0.18774999999999997,1.0113008313582181,3.7249747622814593
-0.1875,1.0113008313582181,3.7451503234074512
-0.18724999999999992,1.0113008313582181,3.7586006974914459
-0.18699999999999994,1.0113008313582181,3.7653258845334432
-0.18674999999999997,1.0113008313582181,3.7686884780544418
-0.1865,1.0113008313582181,3.7855014456594351
-0.18624999999999992,1.0079422587869113,3.8090396003064253
-0.18599999999999994,1.0045836862156046,3.8224899743904199
-0.18574999999999997,1.0079422587869113,3.8359403484744146
-0.1855,1.0079422587869113,3.8527533160794079
-0.18524999999999991,1.0146594039295249,3.8493907225584092
-0.18499999999999994,1.0213765490721385,3.8493907225584092
-0.18474999999999997,1.0247351216434453,3.8460281290374105
-0.1845,1.0247351216434453,3.8359403484744146
-0.18424999999999991,1.0280936942147521,3.8224899743904199
-0.18399999999999994,1.0314522667860588,3.8191273808694213
-0.18374999999999997,1.0314522667860588,3.8090396003064253
-0.1835,1.0314522667860588,3.8090396003064253
-0.18324999999999991,1.0348108393573656,3.8258525679114186
-0.18299999999999994,1.0314522667860588,3.8426655355164119
-0.18274999999999997,1.0348108393573656,3.8527533160794079
-0.1825,1.0415279844999792,3.8527533160794079
-0.18224999999999991,1.0415279844999792,3.8662036901634025
-0.18199999999999994,1.044886557071286,3.8863792512893944
-0.18174999999999997,1.0415279844999792,3.9536311217093671
-0.18149999999999999,1.0381694119286724,4.0040700245243466
-0.18124999999999991,1.0415279844999792,4.0175203986083412
-0.18099999999999994,1.0415279844999792,4.0309707726923358
-0.18074999999999997,1.0415279844999792,4.0444211467763305
-0.18049999999999999,1.0415279844999792,4.0545089273393264
-0.18024999999999991,1.0381694119286724,4.0713218949443197
-0.17999999999999994,1.0381694119286724,4.088134862549313
-0.17974999999999997,1.0381694119286724,4.1049478301543063
-0.17949999999999999,1.0415279844999792,4.1217607977592996
-0.17924999999999991,1.0415279844999792,4.1318485783222956
-0.17899999999999994,1.0415279844999792,4.1452989524062902
-0.17874999999999996,1.0415279844999792,4.1587493264902839
-0.17849999999999999,1.0381694119286724,4.1721997005742786
-0.17824999999999991,1.0381694119286724,4.1856500746582732
-0.17799999999999994,1.0381694119286724,4.2024630422632665
-0.17774999999999996,1.0348108393573656,4.2192760098682598
-0.17749999999999999,1.0348108393573656,4.2293637904312558
-0.17724999999999991,1.0381694119286724,4.2360889774732531
-0.17699999999999994,1.0348108393573656,4.2529019450782464
-0.17674999999999996,1.0314522667860588,4.276440099725237
-0.17649999999999999,1.0314522667860588,4.286527880288233
-0.17624999999999991,1.0280936942147521,4.286527880288233
-0.17599999999999993,1.0280936942147521,4.286527880288233
-0.17574999999999996,1.0280936942147521,4.2798026932462356
-0.17549999999999999,1.0280936942147521,4.2697149126832397
-0.17524999999999991,1.0314522667860588,4.2730775062042383
-0.17499999999999993,1.0280936942147521,4.286527880288233
-0.17474999999999996,1.0280936942147521,4.2966156608512289
-0.17449999999999999,1.0280936942147521,4.3067034414142249
-0.1742499999999999,1.0247351216434453,4.3235164090192182
-0.17399999999999993,1.0247351216434453,4.3336041895822142
-0.17374999999999996,1.0213765490721385,4.3571423442292048
-0.17349999999999999,1.0180179765008317,4.4109438405651824
-0.1732499999999999,1.0113008313582181,4.4815583045061542
-0.17299999999999993,1.0113008313582181,4.4983712721111475
-0.17274999999999996,1.0113008313582181,4.5118216461951421
-0.17249999999999999,1.0113008313582181,4.5219094267581381
-0.1722499999999999,1.0113008313582181,4.5353598008421327
-0.17199999999999993,1.0113008313582181,4.552172768447126
-0.17174999999999996,1.0113008313582181,4.5656231425311198
-0.17149999999999999,1.0113008313582181,4.5790735166151144
-0.1712499999999999,1.0113008313582181,4.5891612971781104
-0.17099999999999993,1.0113008313582181,4.602611671262105
-0.17074999999999996,1.0113008313582181,4.6160620453460997
-0.17049999999999998,1.0113008313582181,4.6261498259090956
-0.1702499999999999,1.0113008313582181,4.6396001999930903
-0.16999999999999993,1.0113008313582181,4.6496879805560862
-0.16974999999999996,1.0113008313582181,4.6597757611190822
-0.16949999999999998,1.0079422587869113,4.6799513222450742
-0.1692499999999999,1.0079422587869113,4.7001268833710661
-0.16899999999999993,1.0079422587869113,4.7135772574550607
-0.16874999999999996,1.0113008313582181,4.730390225060054
-0.16849999999999998,1.0180179765008317,4.730390225060054
-0.16825000000000001,1.0213765490721385,4.7270276315390554
-0.16799999999999993,1.0247351216434453,4.7236650380180567
-0.16774999999999995,1.0280936942147521,4.7135772574550607
-0.16749999999999998,1.0280936942147521,4.7034894768920648
-0.16725000000000001,1.0314522667860588,4.6900391028080701
-0.16699999999999993,1.0348108393573656,4.6765887287240755
-0.16674999999999995,1.0348108393573656,4.6799513222450742
-0.16649999999999998,1.0348108393573656,4.6900391028080701
-0.16625000000000001,1.0348108393573656,4.7034894768920648
-0.16599999999999993,1.0381694119286724,4.7102146639340621
-0.16574999999999995,1.0415279844999792,4.7169398509760594
-0.16549999999999998,1.0415279844999792,4.7337528185810527
-0.16525000000000001,1.0415279844999792,4.7741039408330357
-0.16499999999999992,1.0381694119286724,4.8447184047740075
-0.16474999999999995,1.0415279844999792,4.8783443399839941
-0.16449999999999998,1.0415279844999792,4.8884321205469901
-0.16425000000000001,1.0415279844999792,4.9018824946309847
-0.16399999999999992,1.0415279844999792,4.9119702751939807
-0.16374999999999995,1.0415279844999792,4.918695462235978
-0.16349999999999998,1.0381694119286724,4.9321458363199726
-0.16325000000000001,1.0381694119286724,4.9422336168829686
-0.16299999999999992,1.0381694119286724,4.9590465844879619
-0.16274999999999995,1.0381694119286724,4.9893099261769489
-0.16249999999999998,1.0415279844999792,4.9993977067399449
-0.16225000000000001,1.0415279844999792,5.0094854873029409
-0.16199999999999992,1.0381694119286724,5.0229358613869355
-0.16174999999999995,1.0381694119286724,5.0363862354709301
-0.16149999999999998,1.0381694119286724,5.0464740160339261
-0.16125,1.0348108393573656,5.0632869836389194
-0.16099999999999992,1.0348108393573656,5.0733747642019154
-0.16074999999999995,1.0381694119286724,5.0700121706809167
-0.16049999999999998,1.0381694119286724,5.0733747642019154
-0.16025,1.0314522667860588,5.1002755123699046
-0.15999999999999992,1.0314522667860588,5.1204510734958966
-0.15974999999999995,1.0314522667860588,5.1271762605378939
-0.15949999999999998,1.0314522667860588,5.1238136670168952
-0.15925,1.0280936942147521,5.1170884799748979
-0.15899999999999992,1.0280936942147521,5.1070006994119019
-0.15874999999999995,1.0280936942147521,5.1036381058909033
-0.15849999999999997,1.0314522667860588,5.1170884799748979
-0.15825,1.0280936942147521,5.1339014475798912
-0.15799999999999992,1.0280936942147521,5.1507144151848845
-0.15774999999999995,1.0280936942147521,5.1574396022268818
-0.15749999999999997,1.0213765490721385,5.1675273827898769
-0.15725,1.0247351216434453,5.1809777568738715
-0.15699999999999992,1.0180179765008317,5.2078785050418608
-0.15674999999999994,1.0146594039295249,5.2751303754618339
-0.15649999999999997,1.0113008313582181,5.3222066847558152
-0.15625,1.0113008313582181,5.3356570588398098
-0.15599999999999992,1.0113008313582181,5.3591952134868004
-0.15574999999999994,1.0113008313582181,5.3726455875707941
-0.15549999999999997,1.0113008313582181,5.3860959616547888
-0.15525,1.0079422587869113,5.3961837422177847
-0.15499999999999992,1.0113008313582181,5.4096341163017794
-0.15474999999999994,1.0113008313582181,5.423084490385774
-0.15449999999999997,1.0113008313582181,5.43317227094877
-0.15425,1.0113008313582181,5.4466226450327646
-0.15399999999999991,1.0113008313582181,5.4567104255957606
-0.15374999999999994,1.0113008313582181,5.4701607996797552
-0.15349999999999997,1.0113008313582181,5.4869737672847485
-0.15325,1.0113008313582181,5.5071493284107405
-0.15299999999999991,1.0079422587869113,5.5273248895367324
-0.15274999999999994,1.0045836862156046,5.5475004506627243
-0.15249999999999997,1.0079422587869113,5.560950824746719
-0.15225,1.0079422587869113,5.5744011988307127
-0.15199999999999991,1.0113008313582181,5.58112638587271
-0.15174999999999994,1.0180179765008317,5.5744011988307127
-0.15149999999999997,1.0247351216434453,5.5744011988307127
-0.15125,1.0247351216434453,5.5676760117887163
-0.15099999999999991,1.0280936942147521,5.5575882312257203
-0.15074999999999994,1.0314522667860588,5.540775263620727
-0.15049999999999997,1.0314522667860588,5.5306874830577311
-0.15024999999999999,1.0314522667860588,5.5239622960157337
-0.14999999999999991,1.0314522667860588,5.540775263620727
-0.14974999999999994,1.0314522667860588,5.560950824746719
-0.14949999999999997,1.0348108393573656,5.5744011988307127
-0.14924999999999999,1.0381694119286724,5.571038605309715
-0.14899999999999991,1.0381694119286724,5.58112638587271
-0.14874999999999994,1.044886557071286,5.5878515729147074
-0.14849999999999997,1.0415279844999792,5.6450156627716845
-0.14824999999999999,1.0381694119286724,5.7156301267126564
-0.14799999999999991,1.0381694119286724,5.739168281359647
-0.14774999999999994,1.0381694119286724,5.7492560619226429
-0.14749999999999996,1.0381694119286724,5.7660690295276362
-0.14724999999999999,1.0415279844999792,5.7761568100906313
-0.14699999999999991,1.0381694119286724,5.7896071841746259
-0.14674999999999994,1.0381694119286724,5.8064201517796192
-0.14649999999999996,1.0381694119286724,5.8265957129056112
-0.14624999999999999,1.0381694119286724,5.8434086805106045
-0.14599999999999991,1.0415279844999792,5.8534964610736004
-0.14574999999999994,1.0381694119286724,5.8602216481155978
-0.14549999999999996,1.0381694119286724,5.8703094286785937
-0.14524999999999999,1.0381694119286724,5.8938475833255843
-0.14499999999999991,1.0381694119286724,5.9106605509305776
-0.14474999999999993,1.0381694119286724,5.9274735185355709
-0.14449999999999996,1.0348108393573656,5.9375612990985669
-0.14424999999999999,1.0348108393573656,5.9476490796615629
-0.14399999999999991,1.0381694119286724,5.9510116731825615
-0.14374999999999993,1.0381694119286724,5.9644620472665562
-0.14349999999999996,1.0314522667860588,6.0014505759975405
-0.14324999999999999,1.0314522667860588,6.0182635436025338
-0.1429999999999999,1.0280936942147521,6.0249887306445311
-0.14274999999999993,1.0280936942147521,6.0182635436025338
-0.14249999999999996,1.0280936942147521,6.0115383565605365
-0.14224999999999999,1.0280936942147521,6.0014505759975405
-0.1419999999999999,1.0314522667860588,5.9947253889555432
-0.14174999999999993,1.0280936942147521,6.0115383565605365
-0.14149999999999996,1.0280936942147521,6.0317139176865284
-0.14124999999999999,1.0280936942147521,6.0451642917705231
-0.1409999999999999,1.0247351216434453,6.0619772593755163
-0.14074999999999993,1.0247351216434453,6.0720650399385123
-0.14049999999999996,1.0213765490721385,6.085515414022507
-0.14024999999999999,1.0180179765008317,6.1292291297954895
-0.1399999999999999,1.0113008313582181,6.1964810002154618
-0.13974999999999993,1.0113008313582181,6.2267443419044497
-0.13949999999999996,1.0113008313582181,6.253645090072439
-0.13924999999999998,1.0113008313582181,6.2704580576774323
-0.1389999999999999,1.0113008313582181,6.2839084317614269
-0.13874999999999993,1.0113008313582181,6.2973588058454215
-0.13849999999999996,1.0113008313582181,6.3074465864084175
-0.13824999999999998,1.0113008313582181,6.3175343669714135
-0.1379999999999999,1.0113008313582181,6.3242595540134108
-0.13774999999999993,1.0113008313582181,6.3343473345764068
-0.13749999999999996,1.0079422587869113,6.3511603021814
-0.13724999999999998,1.0113008313582181,6.371335863307392
-0.13700000000000001,1.0113008313582181,6.3847862373913857
-0.13674999999999993,1.0113008313582181,6.401599204996379
-0.13649999999999995,1.0113008313582181,6.4150495790803737
-0.13624999999999998,1.0045836862156046,6.4385877337273643
-0.13600000000000001,1.0045836862156046,6.4520381078113589
-0.13574999999999993,1.0079422587869113,6.4654884818953535
-0.13549999999999995,1.0079422587869113,6.4789388559793482
-0.13524999999999998,1.0146594039295249,6.4823014495003468
-0.13500000000000001,1.0213765490721385,6.4856640430213455
-0.13474999999999993,1.0247351216434453,6.4957518235843414
-0.13449999999999995,1.0280936942147521,6.4890266365423441
-0.13424999999999998,1.0280936942147521,6.4789388559793482
-0.13400000000000001,1.0314522667860588,6.4654884818953535
-0.13374999999999992,1.0314522667860588,6.4520381078113589
-0.13349999999999995,1.0314522667860588,6.4486755142903602
-0.13324999999999998,1.0314522667860588,6.4587632948533562
-0.13300000000000001,1.0348108393573656,6.4722136689373508
-0.13274999999999992,1.0348108393573656,6.4823014495003468
-0.13249999999999995,1.0415279844999792,6.4789388559793482
-0.13224999999999998,1.0415279844999792,6.4957518235843414
-0.13200000000000001,1.0415279844999792,6.5260151652733294
-0.13174999999999992,1.0415279844999792,6.589904442172303
-0.13149999999999995,1.0381694119286724,6.6571563125922761
-0.13124999999999998,1.0381694119286724,6.6739692801972694
-0.13100000000000001,1.0381694119286724,6.6874196542812641
-0.13074999999999992,1.0381694119286724,6.7008700283652587
-0.13049999999999995,1.0381694119286724,6.7143204024492533
-0.13024999999999998,1.0381694119286724,6.727770776533248
-0.13,1.0381694119286724,6.7412211506172426
-0.12974999999999992,1.0381694119286724,6.7513089311802386
-0.12949999999999995,1.0415279844999792,6.7613967117432345
-0.12924999999999998,1.0381694119286724,6.7748470858272292
-0.129,1.0381694119286724,6.7882974599112229
-0.12874999999999992,1.0381694119286724,6.8017478339952175
-0.12849999999999995,1.0381694119286724,6.8118356145582135
-0.12824999999999998,1.0381694119286724,6.8219233951212095
-0.128,1.0381694119286724,6.8420989562472014
-0.12774999999999992,1.0348108393573656,6.865637110894192
-0.12749999999999995,1.0348108393573656,6.8824500784991853
-0.12724999999999997,1.0381694119286724,6.8891752655411826
-0.127,1.0348108393573656,6.9059882331461759
-0.12674999999999992,1.0280936942147521,6.9261637942721679
-0.12649999999999995,1.0314522667860588,6.9328889813141652
-0.12624999999999997,1.0280936942147521,6.9328889813141652
-0.126,1.0280936942147521,6.9328889813141652
-0.12574999999999992,1.0280936942147521,6.9261637942721679
-0.12549999999999994,1.0280936942147521,6.9194386072301706
-0.12524999999999997,1.0280936942147521,6.9261637942721679
-0.125,1.0314522667860588,6.9429767618771612
-0.12474999999999992,1.0280936942147521,6.9530645424401571
-0.12449999999999994,1.0280936942147521,6.9665149165241518
-0.12424999999999997,1.0213765490721385,6.9833278841291451
-0.124,1.0247351216434453,6.9900530711711424
-0.12374999999999992,1.0180179765008317,7.0169538193391308
-0.12349999999999994,1.0180179765008317,7.0842056897591039
-0.12324999999999997,1.0113008313582181,7.1514575601790771
-0.123,1.0113008313582181,7.1682705277840704
-0.12274999999999991,1.0113008313582181,7.1850834953890637
-0.12249999999999994,1.0113008313582181,7.1951712759520587
-0.12224999999999997,1.0113008313582181,7.2052590565150547
-0.122,1.0113008313582181,7.2153468370780507
-0.12174999999999991,1.0113008313582181,7.232159804683044
-0.12149999999999994,1.0079422587869113,7.2456101787670386
-0.12124999999999997,1.0079422587869113,7.2624231463720319
-0.121,1.0079422587869113,7.2859613010190225
-0.12074999999999991,1.0113008313582181,7.2994116751030171
-0.12049999999999994,1.0113008313582181,7.3128620491870118
-0.12024999999999997,1.0113008313582181,7.3263124232710064
-0.12,1.0113008313582181,7.3364002038340024
-0.11974999999999991,1.0113008313582181,7.349850577917997
-0.11949999999999994,1.0079422587869113,7.3733887325649876
-0.11924999999999997,1.0079422587869113,7.3834765131279836
-0.11899999999999999,1.0113008313582181,7.3935642936909796
-0.11874999999999991,1.0113008313582181,7.3969268872119773
-0.11849999999999994,1.0180179765008317,7.400289480732976
-0.11824999999999997,1.0247351216434453,7.4036520742539746
-0.11799999999999999,1.0280936942147521,7.410377261295972
-0.11774999999999991,1.0280936942147521,7.4137398548169706
-0.11749999999999994,1.0314522667860588,7.400289480732976
-0.11724999999999997,1.0314522667860588,7.3935642936909796
-0.11699999999999999,1.0314522667860588,7.3902017001699809
-0.11674999999999991,1.0348108393573656,7.3935642936909796
-0.11649999999999994,1.0348108393573656,7.4036520742539746
-0.11624999999999996,1.0348108393573656,7.4137398548169706
-0.11599999999999999,1.0381694119286724,7.410377261295972
-0.11574999999999991,1.0415279844999792,7.4137398548169706
-0.11549999999999994,1.044886557071286,7.4305528224219639
-0.11524999999999996,1.0415279844999792,7.4742665381949465
